; ModuleID = './generated_files/correction_exemple1.bc'
source_filename = "correction_exemple1.c"
target datalayout = "e-m:e-p270:32:32-p271:32:32-p272:64:64-i64:64-f80:128-n8:16:32:64-S128"
target triple = "x86_64-pc-linux-gnu"

@.str = private unnamed_addr constant [7 x i8] c"secure\00", align 1

; Function Attrs: noinline nounwind optnone uwtable
define dso_local i32 @secure_program(i32 %0) #0 {
  %2 = alloca i32, align 4
  %3 = alloca i32, align 4
  %4 = alloca i32, align 4
  %5 = alloca i32, align 4
  store i32 %0, i32* %3, align 4
  store i32 255, i32* %4, align 4
  store i32 255, i32* %5, align 4
  %6 = load i32, i32* %3, align 4
  %7 = icmp ne i32 %6, 0
  br i1 %7, label %8, label %9

8:                                                ; preds = %1
  store i32 0, i32* %5, align 4
  br label %10

9:                                                ; preds = %1
  store i32 0, i32* %4, align 4
  br label %10

10:                                               ; preds = %9, %8
  %11 = load i32, i32* %3, align 4
  %12 = icmp ne i32 %11, 0
  br i1 %12, label %13, label %16

13:                                               ; preds = %10
  %14 = load i32, i32* %4, align 4
  %15 = and i32 170, %14
  store i32 %15, i32* %2, align 4
  br label %19

16:                                               ; preds = %10
  %17 = load i32, i32* %5, align 4
  %18 = and i32 187, %17
  store i32 %18, i32* %2, align 4
  br label %19

19:                                               ; preds = %16, %13
  %20 = load i32, i32* %2, align 4
  ret i32 %20
}

; Function Attrs: noinline nounwind optnone uwtable
define dso_local i32 @unsecure_program(i32 %0) #0 {
  %2 = alloca i32, align 4
  %3 = alloca i32, align 4
  %4 = alloca i32, align 4
  %5 = alloca i32, align 4
  store i32 %0, i32* %3, align 4
  store i32 18, i32* %4, align 4
  store i32 69, i32* %5, align 4
  %6 = load i32, i32* %3, align 4
  %7 = icmp ne i32 %6, 0
  br i1 %7, label %8, label %9

8:                                                ; preds = %1
  store i32 0, i32* %5, align 4
  br label %10

9:                                                ; preds = %1
  store i32 0, i32* %4, align 4
  br label %10

10:                                               ; preds = %9, %8
  %11 = load i32, i32* %3, align 4
  %12 = icmp ne i32 %11, 0
  br i1 %12, label %13, label %16

13:                                               ; preds = %10
  %14 = load i32, i32* %4, align 4
  %15 = and i32 170, %14
  store i32 %15, i32* %2, align 4
  br label %19

16:                                               ; preds = %10
  %17 = load i32, i32* %5, align 4
  %18 = and i32 187, %17
  store i32 %18, i32* %2, align 4
  br label %19

19:                                               ; preds = %16, %13
  %20 = load i32, i32* %2, align 4
  ret i32 %20
}

; Function Attrs: noinline nounwind optnone uwtable
define dso_local i32 @post_condition(i32 %0, i32 %1) #0 {
  %3 = alloca i32, align 4
  %4 = alloca i32, align 4
  store i32 %0, i32* %3, align 4
  store i32 %1, i32* %4, align 4
  %5 = load i32, i32* %3, align 4
  %6 = icmp ne i32 %5, 0
  br i1 %6, label %7, label %10

7:                                                ; preds = %2
  %8 = load i32, i32* %4, align 4
  %9 = icmp eq i32 %8, 170
  br i1 %9, label %10, label %18

10:                                               ; preds = %7, %2
  %11 = load i32, i32* %3, align 4
  %12 = icmp ne i32 %11, 0
  br i1 %12, label %16, label %13

13:                                               ; preds = %10
  %14 = load i32, i32* %4, align 4
  %15 = icmp eq i32 %14, 187
  br label %16

16:                                               ; preds = %13, %10
  %17 = phi i1 [ true, %10 ], [ %15, %13 ]
  br label %18

18:                                               ; preds = %16, %7
  %19 = phi i1 [ false, %7 ], [ %17, %16 ]
  %20 = zext i1 %19 to i32
  ret i32 %20
}

; Function Attrs: noinline nounwind optnone uwtable
define dso_local i32 @main(i32 %0, i8** %1) #0 {
  %3 = alloca i32, align 4
  %4 = alloca i32, align 4
  %5 = alloca i8**, align 8
  %6 = alloca i32, align 4
  %7 = alloca i32, align 4
  store i32 0, i32* %3, align 4
  store i32 %0, i32* %4, align 4
  store i8** %1, i8*** %5, align 8
  %8 = bitcast i32* %6 to i8*
  call void @klee_make_symbolic(i8* %8, i64 4, i8* getelementptr inbounds ([7 x i8], [7 x i8]* @.str, i64 0, i64 0))
  %9 = load i32, i32* %6, align 4
  %10 = call i32 @secure_program(i32 %9)
  store i32 %10, i32* %7, align 4
  %11 = load i32, i32* %6, align 4
  %12 = load i32, i32* %7, align 4
  %13 = call i32 @post_condition(i32 %11, i32 %12)
  %14 = icmp ne i32 %13, 0
  %15 = xor i1 %14, true
  %16 = zext i1 %15 to i32
  %17 = sext i32 %16 to i64
  call void @klee_assume(i64 %17)
  ret i32 1
}

declare dso_local void @klee_make_symbolic(i8*, i64, i8*) #1

declare dso_local void @klee_assume(i64) #1

attributes #0 = { noinline nounwind optnone uwtable "correctly-rounded-divide-sqrt-fp-math"="false" "disable-tail-calls"="false" "frame-pointer"="all" "less-precise-fpmad"="false" "min-legal-vector-width"="0" "no-infs-fp-math"="false" "no-jump-tables"="false" "no-nans-fp-math"="false" "no-signed-zeros-fp-math"="false" "no-trapping-math"="true" "stack-protector-buffer-size"="8" "target-cpu"="x86-64" "target-features"="+cx8,+fxsr,+mmx,+sse,+sse2,+x87" "unsafe-fp-math"="false" "use-soft-float"="false" }
attributes #1 = { "correctly-rounded-divide-sqrt-fp-math"="false" "disable-tail-calls"="false" "frame-pointer"="all" "less-precise-fpmad"="false" "no-infs-fp-math"="false" "no-nans-fp-math"="false" "no-signed-zeros-fp-math"="false" "no-trapping-math"="true" "stack-protector-buffer-size"="8" "target-cpu"="x86-64" "target-features"="+cx8,+fxsr,+mmx,+sse,+sse2,+x87" "unsafe-fp-math"="false" "use-soft-float"="false" }

!llvm.module.flags = !{!0}
!llvm.ident = !{!1}

!0 = !{i32 1, !"wchar_size", i32 4}
!1 = !{!"Ubuntu clang version 11.1.0-++20211011094159+1fdec59bffc1-1~exp1~20211011214614.8"}
